{
  "url": "https://headlines.yahoo.co.jp/hl?a=20180130-00010004-huffpost-int",
  "title": "\u300c\u30de\u30a4\u30ca\u30b940\u5ea6\u306a\u306e\u306b\u30df\u30cb\u30b9\u30ab\u30fc\u30c8\u300d \u51cd\u50b7\u306e\u5973\u5b50\u5927\u751f\u306e\u5199\u771f\u304c\u62e1\u6563 \u21d2 \u5927\u5b66\u5074\u304c\u53cd\u8ad6",
  "content": "<p class=\"ynDetailText\">\n\u30de\u30a4\u30ca\u30b940\u5ea6\u306e\u9177\u5bd2\u306e\u5730\u3092\u3001\u30df\u30cb\u30b9\u30ab\u30fc\u30c8\u3067\u5916\u51fa\u3057\u305f\u5973\u5b50\u5927\u751f\u304c\u3072\u3069\u3044\u51cd\u50b7\u3092\u8ca0\u3063\u305f\u3068\u3044\u3046\u30cb\u30e5\u30fc\u30b9\u304c1\u6708\u4e0b\u65ec\u3001\u4e16\u754c\u3092\u99c6\u3051\u5de1\u3063\u305f\u3002<br><br><a href=\"https://rdsig.yahoo.co.jp/media/news/rd_tool/huffpost/articles/int/RV=1/RE=1518616261/RH=cmRzaWcueWFob28uY28uanA-/RB=/RU=aHR0cDovL3d3dy5odWZmaW5ndG9ucG9zdC5qcC8yMDE4LzAxLzMwL21pbnVzNDBfYV8yMzM0NzM3Ny8_dXRtX2hwX3JlZj15YWhvbw--/RS=%5EADAoHtPTDctoryOHAJKo0PhfEoU5Ng-\">\u3010\u95b2\u89a7\u6ce8\u610f\u3011\u51cd\u50b7\u3067\u771f\u3063\u8d64\u306b\u306a\u3063\u305f\u5973\u5b50\u5927\u751f\u306e\u4e21\u8db3</a><br><br>SNS\u3067\u62e1\u6563\u3057\u3066\u3044\u308b\u5199\u771f\u3092\u3082\u3068\u306b\u3001\u82f1\u7d19METRO\u3084\u30c7\u30a4\u30ea\u30fc\u30fb\u30d1\u30ad\u30b9\u30bf\u30f3\u306a\u3069\u304c\u3001\u30ab\u30b6\u30d5\u30b9\u30bf\u30f3\u306e\u9996\u90fd\u30a2\u30b9\u30bf\u30ca\u3067\u6cd5\u5f8b\u5b66\u3092\u5b66\u3076\u5973\u5b50\u5927\u751f\u306b\u3064\u3044\u3066\u5831\u3058\u305f\u3002\u30df\u30cb\u30b9\u30ab\u30fc\u30c8\u3068\u30bf\u30a4\u30c4\u3067\u5916\u51fa\u3057\u305f\u7d50\u679c\u3001\u4e21\u65b9\u306e\u817f\u304c\u8d64\u9ed2\u304f\u5909\u8272\u3059\u308b\u306a\u3069\u3001\u7b2c2\u5ea6\u306e\u51cd\u50b7\u3092\u8ca0\u3063\u305f\u3068\u3044\u3046\u306e\u3060\u3002</p>",
  "date": "1/30(\u706b) 18:18\u914d\u4fe1\n    "
}